[gd_scene load_steps=4 format=2]

[ext_resource path="res://Sprites/human_male_wizard_a_01.png" type="Texture" id=2]
[ext_resource path="res://EnemyIntelligent.gd" type="Script" id=3]

[sub_resource type="CircleShape2D" id=1]
radius = 10.7411

[node name="EnemyIntelligent" type="KinematicBody2D" groups=[
"enemies",
]]
scale = Vector2( 0.6, 0.6 )
collision_layer = 2
collision_mask = 31
script = ExtResource( 3 )

[node name="Sprite" type="Sprite" parent="."]
texture = ExtResource( 2 )

[node name="CollisionShape2D" type="CollisionShape2D" parent="."]
scale = Vector2( 4.2, 4.26667 )
shape = SubResource( 1 )

[node name="Visibility" type="Area2D" parent="."]
collision_layer = 256

[node name="CollisionShape2D" type="CollisionShape2D" parent="Visibility"]

[node name="ShootTimer" type="Timer" parent="."]

[node name="RayCast2D" type="RayCast2D" parent="."]
[connection signal="body_entered" from="Visibility" to="." method="_on_Visibility_body_entered"]
[connection signal="body_exited" from="Visibility" to="." method="_on_Visibility_body_exited"]
[connection signal="timeout" from="ShootTimer" to="." method="_on_ShootTimer_timeout"]
