[gd_scene load_steps=5 format=2]

[ext_resource path="res://Sprites/human_male_warrior_b_01.png" type="Texture" id=1]
[ext_resource path="res://wiato/Light.png" type="Texture" id=2]

[sub_resource type="GDScript" id=1]
script/source = "extends KinematicBody2D

var hp = 60

func damage():
	hp -= 1
	modulate.a = (hp / 10.0)
	
	if hp == 0:
		queue_free()
"

[sub_resource type="CapsuleShape2D" id=2]
radius = 9.26521

[node name="EnemySwordsmanScene" type="Node2D"]

[node name="EnemySwordsman" type="KinematicBody2D" parent="." groups=[
"enemies",
]]
rotation = -0.013773
scale = Vector2( 1.5, 1.5 )
collision_layer = 2
collision_mask = 31
script = SubResource( 1 )

[node name="Sprite" type="Sprite" parent="EnemySwordsman"]
modulate = Color( 0.0313726, 0.745098, 0.992157, 1 )
scale = Vector2( 0.5, 0.5 )
texture = ExtResource( 1 )

[node name="Light2D" type="Light2D" parent="EnemySwordsman/Sprite"]
scale = Vector2( 0.310521, 0.372992 )
texture = ExtResource( 2 )
texture_scale = 0.5
color = Color( 0.392157, 0.627451, 0.831373, 1 )
shadow_enabled = true
shadow_gradient_length = 1.0

[node name="CollisionShape2D" type="CollisionShape2D" parent="EnemySwordsman"]
position = Vector2( -1.72296, -0.0322876 )
scale = Vector2( 1.85676, 1.36495 )
shape = SubResource( 2 )
