[gd_scene load_steps=5 format=2]

[ext_resource path="res://Sprites/Perks.png" type="Texture" id=1]
[ext_resource path="res://Eye.gd" type="Script" id=2]

[sub_resource type="CapsuleShape2D" id=1]
height = 2.60565

[sub_resource type="Animation" id=2]
resource_name = "Nowa animacja"
loop = true
step = 0.5
tracks/0/type = "value"
tracks/0/path = NodePath("Sprite:frame")
tracks/0/interp = 1
tracks/0/loop_wrap = true
tracks/0/imported = false
tracks/0/enabled = true
tracks/0/keys = {
"times": PoolRealArray( 0, 0.5 ),
"transitions": PoolRealArray( 1, 1 ),
"update": 1,
"values": [ 0, 1 ]
}

[node name="Eye" type="Node2D"]
script = ExtResource( 2 )

[node name="Sprite" type="Sprite" parent="."]
position = Vector2( -0.0866163, -0.049893 )
scale = Vector2( 0.1, 0.1 )
texture = ExtResource( 1 )
vframes = 5
hframes = 2
frame = 1

[node name="Area2D" type="Area2D" parent="."]

[node name="CollisionShape2D" type="CollisionShape2D" parent="Area2D"]
position = Vector2( -0.153889, 8.23303 )
shape = SubResource( 1 )

[node name="Hover" type="AnimationPlayer" parent="."]
"anims/Nowa animacja" = SubResource( 2 )
[connection signal="body_entered" from="Area2D" to="." method="_on_Area2D_body_entered"]
